{
  "implemented": true,
  "name": "Igglybuff",
  "nationalPokedexNumber": 174,
  "primaryType": "normal",
  "secondaryType": "fairy",
  "abilities": [
    "cutecharm",
    "competitive",
    "h:friendguard"
  ],
  "drops": {
    "amount": 3,
    "entries": [
      {
        "item": "cobblemon:moon_stone",
        "percentage": 2.5
      },
      {
        "item": "cobblemon:air_balloon",
        "percentage": 2.5
      },
      {
        "item": "cobblemon:oran_berry",
        "percentage": 2.5
      }
    ]
  },
  "baseStats": {
    "hp": 90,
    "attack": 30,
    "defence": 15,
    "special_attack": 40,
    "special_defence": 20,
    "speed": 15
  },
  "catchRate": 170,
  "maleRatio": 0.25,
  "shoulderMountable": true,
  "baseExperienceYield": 42,
  "experienceGroup": "fast",
  "eggCycles": 10,
  "eggGroups": [
    "undiscovered"
  ],
  "moves": [
    "1:copycat",
    "1:pound",
    "1:sing",
    "4:defensecurl",
    "8:sweetkiss",
    "12:disarmingvoice",
    "16:disable",
    "20:charm",
    "egg:captivate",
    "egg:covet",
    "egg:faketears",
    "egg:feintattack",
    "egg:gravity",
    "egg:healpulse",
    "egg:lastresort",
    "egg:mistyterrain",
    "egg:perishsong",
    "egg:present",
    "egg:punishment",
    "egg:rollout",
    "egg:sleeptalk",
    "egg:wish",
    "tm:alluringvoice",
    "tm:attract",
    "tm:bodyslam",
    "tm:bounce",
    "tm:captivate",
    "tm:charm",
    "tm:confide",
    "tm:dazzlinggleam",
    "tm:dig",
    "tm:disarmingvoice",
    "tm:doubleedge",
    "tm:doubleteam",
    "tm:drainingkiss",
    "tm:dreameater",
    "tm:echoedvoice",
    "tm:encore",
    "tm:endeavor",
    "tm:endure",
    "tm:facade",
    "tm:faketears",
    "tm:fireblast",
    "tm:flamethrower",
    "tm:flash",
    "tm:fling",
    "tm:frustration",
    "tm:grassknot",
    "tm:gravity",
    "tm:helpinghand",
    "tm:hiddenpower",
    "tm:hypervoice",
    "tm:icywind",
    "tm:incinerate",
    "tm:lightscreen",
    "tm:megakick",
    "tm:megapunch",
    "tm:mistyterrain",
    "tm:naturalgift",
    "tm:painsplit",
    "tm:playrough",
    "tm:protect",
    "tm:psychic",
    "tm:psychup",
    "tm:raindance",
    "tm:recycle",
    "tm:reflect",
    "tm:rest",
    "tm:return",
    "tm:round",
    "tm:safeguard",
    "tm:screech",
    "tm:secretpower",
    "tm:shadowball",
    "tm:shockwave",
    "tm:sleeptalk",
    "tm:snore",
    "tm:solarbeam",
    "tm:substitute",
    "tm:sunnyday",
    "tm:swagger",
    "tm:swift",
    "tm:takedown",
    "tm:terablast",
    "tm:thunderwave",
    "tm:toxic",
    "tm:trailblaze",
    "tm:uproar",
    "tm:waterpulse",
    "tm:wildcharge",
    "tm:workup",
    "tutor:attract",
    "tutor:bodyslam",
    "tutor:bounce",
    "tutor:charm",
    "tutor:counter",
    "tutor:covet",
    "tutor:curse",
    "tutor:defensecurl",
    "tutor:detect",
    "tutor:doubleedge",
    "tutor:doubleteam",
    "tutor:dreameater",
    "tutor:endeavor",
    "tutor:endure",
    "tutor:faketears",
    "tutor:feintattack",
    "tutor:fireblast",
    "tutor:flash",
    "tutor:frustration",
    "tutor:gravity",
    "tutor:headbutt",
    "tutor:healbell",
    "tutor:helpinghand",
    "tutor:hiddenpower",
    "tutor:hypervoice",
    "tutor:icywind",
    "tutor:lastresort",
    "tutor:magiccoat",
    "tutor:megakick",
    "tutor:megapunch",
    "tutor:mimic",
    "tutor:mudslap",
    "tutor:nightmare",
    "tutor:painsplit",
    "tutor:perishsong",
    "tutor:pound",
    "tutor:present",
    "tutor:protect",
    "tutor:psychic",
    "tutor:psychup",
    "tutor:raindance",
    "tutor:recycle",
    "tutor:rest",
    "tutor:return",
    "tutor:roleplay",
    "tutor:rollout",
    "tutor:seismictoss",
    "tutor:shadowball",
    "tutor:shockwave",
    "tutor:sing",
    "tutor:sleeptalk",
    "tutor:snore",
    "tutor:solarbeam",
    "tutor:substitute",
    "tutor:sunnyday",
    "tutor:swagger",
    "tutor:sweetkiss",
    "tutor:thunderwave",
    "tutor:tickle",
    "tutor:toxic",
    "tutor:uproar",
    "tutor:waterpulse",
    "tutor:zapcannon"
  ],
  "labels": [
    "gen2",
    "baby"
  ],
  "pokedex": [
    "cobblemon.species.igglybuff.desc"
  ],
  "evolutions": [
    {
      "id": "igglybuff_jigglypuff",
      "variant": "level_up",
      "result": "jigglypuff",
      "consumeHeldItem": false,
      "learnableMoves": [],
      "requirements": [
        {
          "variant": "friendship",
          "amount": 160
        }
      ]
    }
  ],
  "baseScale": 0.7,
  "hitbox": {
    "width": 0.5,
    "height": 0.5,
    "fixed": false
  },
  "baseFriendship": 50,
  "evYield": {
    "hp": 1,
    "attack": 0,
    "defence": 0,
    "special_attack": 0,
    "special_defence": 0,
    "speed": 0
  },
  "height": 3,
  "weight": 10,
  "aspects": [],
  "cannotDynamax": false
}