{
  "implemented": true,
  "name": "Phanpy",
  "nationalPokedexNumber": 231,
  "primaryType": "ground",
  "abilities": [
    "pickup",
    "h:sandveil"
  ],
  "drops": {
    "amount": 2,
    "entries": [
      {
        "item": "minecraft:clay_ball",
        "quantityRange": "0-1"
      },
      {
        "item": "cobblemon:passho_berry",
        "percentage": 2.5
      }
    ]
  },
  "baseStats": {
    "hp": 90,
    "attack": 60,
    "defence": 60,
    "special_attack": 40,
    "special_defence": 40,
    "speed": 40
  },
  "catchRate": 120,
  "maleRatio": 0.5,
  "shoulderMountable": false,
  "baseExperienceYield": 66,
  "experienceGroup": "medium_fast",
  "eggCycles": 20,
  "eggGroups": [
    "field"
  ],
  "behaviour": {
    "moving": {
      "walk": {
        "walkSpeed": 0.13
      }
    },
    "resting": {
      "canSleep": true,
      "willSleepOnBed": true,
      "depth": "normal",
      "light": "0-4"
    }
  },
  "moves": [
    "1:defensecurl",
    "1:growl",
    "1:odorsleuth",
    "1:tackle",
    "6:flail",
    "10:rollout",
    "15:bulldoze",
    "15:naturalgift",
    "19:endure",
    "24:slam",
    "28:takedown",
    "33:charm",
    "37:lastresort",
    "42:doubleedge",
    "egg:ancientpower",
    "egg:bodyslam",
    "egg:counter",
    "egg:endeavor",
    "egg:fissure",
    "egg:focusenergy",
    "egg:headsmash",
    "egg:heavyslam",
    "egg:highhorsepower",
    "egg:iceshard",
    "egg:mudslap",
    "egg:playrough",
    "egg:snore",
    "tm:attract",
    "tm:bodyslam",
    "tm:bulldoze",
    "tm:captivate",
    "tm:charm",
    "tm:confide",
    "tm:curse",
    "tm:dig",
    "tm:doubleedge",
    "tm:doubleteam",
    "tm:earthpower",
    "tm:earthquake",
    "tm:echoedvoice",
    "tm:encore",
    "tm:endeavor",
    "tm:endure",
    "tm:facade",
    "tm:frustration",
    "tm:gunkshot",
    "tm:heavyslam",
    "tm:helpinghand",
    "tm:hiddenpower",
    "tm:highhorsepower",
    "tm:hypervoice",
    "tm:ironhead",
    "tm:irontail",
    "tm:knockoff",
    "tm:mudshot",
    "tm:mudslap",
    "tm:naturalgift",
    "tm:playrough",
    "tm:protect",
    "tm:raindance",
    "tm:rest",
    "tm:return",
    "tm:roar",
    "tm:rockslide",
    "tm:rocksmash",
    "tm:rocktomb",
    "tm:round",
    "tm:sandstorm",
    "tm:sandtomb",
    "tm:secretpower",
    "tm:seedbomb",
    "tm:sleeptalk",
    "tm:smackdown",
    "tm:stealthrock",
    "tm:stompingtantrum",
    "tm:stoneedge",
    "tm:strength",
    "tm:substitute",
    "tm:sunnyday",
    "tm:swagger",
    "tm:takedown",
    "tm:terablast",
    "tm:thief",
    "tm:toxic",
    "tm:trailblaze",
    "tutor:ancientpower",
    "tutor:attract",
    "tutor:bodyslam",
    "tutor:counter",
    "tutor:curse",
    "tutor:defensecurl",
    "tutor:doubleedge",
    "tutor:doubleteam",
    "tutor:earthpower",
    "tutor:earthquake",
    "tutor:endeavor",
    "tutor:endure",
    "tutor:flail",
    "tutor:focusenergy",
    "tutor:frustration",
    "tutor:growl",
    "tutor:gunkshot",
    "tutor:headbutt",
    "tutor:heavyslam",
    "tutor:hiddenpower",
    "tutor:hypervoice",
    "tutor:irontail",
    "tutor:knockoff",
    "tutor:lastresort",
    "tutor:mimic",
    "tutor:mudslap",
    "tutor:protect",
    "tutor:rest",
    "tutor:return",
    "tutor:roar",
    "tutor:rocksmash",
    "tutor:rollout",
    "tutor:sandstorm",
    "tutor:seedbomb",
    "tutor:sleeptalk",
    "tutor:snore",
    "tutor:stealthrock",
    "tutor:strength",
    "tutor:substitute",
    "tutor:sunnyday",
    "tutor:superpower",
    "tutor:swagger",
    "tutor:tackle",
    "tutor:takedown",
    "tutor:toxic",
    "tutor:watergun"
  ],
  "labels": [
    "gen2"
  ],
  "pokedex": [
    "cobblemon.species.phanpy.desc"
  ],
  "evolutions": [
    {
      "id": "phanpy_donphan",
      "variant": "level_up",
      "result": "donphan",
      "consumeHeldItem": false,
      "learnableMoves": [
        "furyattack"
      ],
      "requirements": [
        {
          "variant": "level",
          "minLevel": 25
        }
      ]
    }
  ],
  "baseScale": 0.7,
  "hitbox": {
    "width": 0.7,
    "height": 0.9,
    "fixed": false
  },
  "baseFriendship": 70,
  "evYield": {
    "hp": 1,
    "attack": 0,
    "defence": 0,
    "special_attack": 0,
    "special_defence": 0,
    "speed": 0
  },
  "height": 5,
  "weight": 335,
  "aspects": [],
  "cannotDynamax": false
}