{
  "implemented": true,
  "name": "Skarmory",
  "nationalPokedexNumber": 227,
  "primaryType": "steel",
  "secondaryType": "flying",
  "abilities": [
    "keeneye",
    "sturdy",
    "h:weakarmor"
  ],
  "baseStats": {
    "hp": 65,
    "attack": 80,
    "defence": 140,
    "special_attack": 40,
    "special_defence": 70,
    "speed": 70
  },
  "catchRate": 25,
  "maleRatio": 0.5,
  "shoulderMountable": false,
  "baseExperienceYield": 163,
  "experienceGroup": "slow",
  "eggCycles": 25,
  "eggGroups": [
    "flying"
  ],
  "behaviour": {
    "resting": {
      "canSleep": true,
      "depth": "normal",
      "light": "0-4"
    },
    "moving": {
      "fly": {
        "canFly": true
      }
    }
  },
  "moves": [
    "1:leer",
    "1:peck",
    "4:sandattack",
    "8:furyattack",
    "12:aircutter",
    "12:metalclaw",
    "16:agility",
    "20:feint",
    "20:wingattack",
    "23:swift",
    "24:slash",
    "28:steelwing",
    "32:autotomize",
    "32:payback",
    "36:drillpeck",
    "40:metalsound",
    "44:spikes",
    "45:airslash",
    "48:irondefense",
    "52:bravebird",
    "53:nightslash",
    "egg:aircutter",
    "egg:assurance",
    "egg:bravebird",
    "egg:curse",
    "egg:drillpeck",
    "egg:endure",
    "egg:feint",
    "egg:guardswap",
    "egg:nightslash",
    "egg:pursuit",
    "egg:roost",
    "egg:skyattack",
    "egg:stealthrock",
    "egg:whirlwind",
    "tm:aerialace",
    "tm:agility",
    "tm:aircutter",
    "tm:airslash",
    "tm:assurance",
    "tm:attract",
    "tm:bodypress",
    "tm:bravebird",
    "tm:captivate",
    "tm:confide",
    "tm:curse",
    "tm:cut",
    "tm:darkpulse",
    "tm:defog",
    "tm:doubleteam",
    "tm:drillrun",
    "tm:dualwingbeat",
    "tm:endure",
    "tm:facade",
    "tm:flash",
    "tm:flashcannon",
    "tm:fly",
    "tm:frustration",
    "tm:gigaimpact",
    "tm:guardswap",
    "tm:hiddenpower",
    "tm:hurricane",
    "tm:hyperbeam",
    "tm:icywind",
    "tm:irondefense",
    "tm:ironhead",
    "tm:metalclaw",
    "tm:metalsound",
    "tm:naturalgift",
    "tm:payback",
    "tm:pluck",
    "tm:protect",
    "tm:rest",
    "tm:return",
    "tm:reversal",
    "tm:roar",
    "tm:rockslide",
    "tm:rocksmash",
    "tm:rocktomb",
    "tm:roost",
    "tm:round",
    "tm:sandstorm",
    "tm:sandtomb",
    "tm:secretpower",
    "tm:skydrop",
    "tm:sleeptalk",
    "tm:snore",
    "tm:spikes",
    "tm:stealthrock",
    "tm:steelbeam",
    "tm:steelwing",
    "tm:substitute",
    "tm:sunnyday",
    "tm:swagger",
    "tm:swift",
    "tm:swordsdance",
    "tm:tailwind",
    "tm:takedown",
    "tm:taunt",
    "tm:terablast",
    "tm:thief",
    "tm:torment",
    "tm:toxic",
    "tm:xscissor",
    "tutor:agility",
    "tutor:aircutter",
    "tutor:attract",
    "tutor:counter",
    "tutor:curse",
    "tutor:cut",
    "tutor:darkpulse",
    "tutor:defog",
    "tutor:detect",
    "tutor:doubleedge",
    "tutor:doubleteam",
    "tutor:drillpeck",
    "tutor:dualwingbeat",
    "tutor:endure",
    "tutor:fly",
    "tutor:frustration",
    "tutor:furyattack",
    "tutor:furycutter",
    "tutor:hiddenpower",
    "tutor:icywind",
    "tutor:irondefense",
    "tutor:ironhead",
    "tutor:leer",
    "tutor:mimic",
    "tutor:mudslap",
    "tutor:ominouswind",
    "tutor:peck",
    "tutor:protect",
    "tutor:pursuit",
    "tutor:rest",
    "tutor:return",
    "tutor:rockslide",
    "tutor:roost",
    "tutor:sandattack",
    "tutor:sandstorm",
    "tutor:skyattack",
    "tutor:sleeptalk",
    "tutor:snore",
    "tutor:stealthrock",
    "tutor:steelbeam",
    "tutor:steelwing",
    "tutor:substitute",
    "tutor:sunnyday",
    "tutor:swagger",
    "tutor:swift",
    "tutor:tailwind",
    "tutor:thief",
    "tutor:toxic",
    "tutor:twister",
    "tutor:whirlwind"
  ],
  "labels": [
    "gen2"
  ],
  "pokedex": [
    "cobblemon.species.skarmory.desc"
  ],
  "evolutions": [],
  "baseScale": 1,
  "hitbox": {
    "width": 0.8,
    "height": 1.8,
    "fixed": false
  },
  "baseFriendship": 50,
  "evYield": {
    "hp": 0,
    "attack": 0,
    "defence": 2,
    "special_attack": 0,
    "special_defence": 0,
    "speed": 0
  },
  "height": 17,
  "weight": 505,
  "aspects": [],
  "cannotDynamax": false,
  "drops": {
    "amount": 3,
    "entries": [
      {
        "item": "cobblemon:sharp_beak",
        "percentage": 5.0
      },
      {
        "item": "cobblemon:metal_coat",
        "percentage": 5.0
      },
      {
        "item": "cobblemon:pinap_berry",
        "percentage": 5.0
      }
    ]
  }
}