{
	"format_version": "1.8.0",
	"animations": {
		"animation.klefki.ground_idle": {
			"loop": true,
			"bones": {
				"body": {
					"position": [0, 6, 0]
				},
				"main_body": {
					"rotation": [7.5, 0, 0]
				},
				"bell": {
					"rotation": [-5, 0, 0]
				},
				"bell2": {
					"rotation": [2.5, 0, 0]
				},
				"head_key": {
					"rotation": [-5, 0, 0]
				},
				"arm_left2": {
					"rotation": [0, 0, 32.5]
				},
				"arm_left3": {
					"rotation": [0, 0, 27.5]
				},
				"arm_left4": {
					"rotation": [-0.20794, -0.06555, 32.50487]
				},
				"arm_left5": {
					"rotation": [0, 0, 30]
				},
				"arm_left6": {
					"rotation": [0, 0, 30]
				},
				"arm_left7": {
					"rotation": [0, 0, 35]
				},
				"hand_left": {
					"rotation": [0, 0, 15]
				},
				"hand_left2": {
					"rotation": [0, 0, 2.5]
				},
				"head_key2": {
					"rotation": [-5, 0, 0]
				},
				"head_key3": {
					"rotation": [0, 0, 0]
				},
				"key1": {
					"rotation": [12.68173, -10.84247, 2.69692],
					"position": [-7, -4.5, 0]
				},
				"key2": {
					"rotation": [15, 0, 7.5],
					"position": [-4.5, -5.5, 0]
				},
				"arm_right2": {
					"rotation": [0, 0, -32.5]
				},
				"arm_right3": {
					"rotation": [0, 0, -27.5]
				},
				"arm_right4": {
					"rotation": [-0.20794, 0.06555, -32.50487]
				},
				"arm_right5": {
					"rotation": [0, 0, -30]
				},
				"arm_right6": {
					"rotation": [0, 0, -30]
				},
				"arm_right7": {
					"rotation": [0, 0, -35]
				},
				"hand_right": {
					"rotation": [0, 0, -15]
				},
				"hand_right2": {
					"rotation": [0, 0, -2.5]
				},
				"key3": {
					"rotation": [17.5, 5, 0],
					"position": [4, -6.5, 0.5]
				},
				"key4": {
					"rotation": [-12.5, 0, 17.5],
					"position": [7, -6.5, 0]
				},
				"key4_2": {
					"rotation": [-2.5, 0, -12.5]
				},
				"klefki": {
					"scale": 1
				}
			}
		},
		"animation.klefki.battle_idle": {
			"loop": true,
			"bones": {
				"body": {
					"position": [0, 6, 0]
				},
				"main_body": {
					"rotation": [7.5, 0, 0]
				},
				"bell": {
					"rotation": [5, 0, 0]
				},
				"bell2": {
					"rotation": [5, 0, 0]
				},
				"head_key": {
					"rotation": [-5, 0, 0]
				},
				"arm_left": {
					"rotation": [0, -7.5, -10]
				},
				"arm_left2": {
					"rotation": [-2.5, 0, 32.5]
				},
				"arm_left3": {
					"rotation": [0, 0, 42.5]
				},
				"arm_left4": {
					"rotation": [0, 0, 27.5]
				},
				"arm_left5": {
					"rotation": [-0.81896, 2.74608, -33.83565]
				},
				"arm_left6": {
					"rotation": [0, 0, -32.5]
				},
				"arm_left7": {
					"rotation": [0, 0, -50]
				},
				"hand_left": {
					"rotation": [-0.36116, 0.89127, -57.52555]
				},
				"hand_left2": {
					"rotation": [0, 0, -67.5]
				},
				"key1": {
					"rotation": [10, 0, -32.5],
					"position": [8, 3, 0]
				},
				"key2": {
					"rotation": [19.12492, -9.09598, 16.79586],
					"position": [4, 8.75, 0]
				},
				"arm_right": {
					"rotation": [0, 7.5, 10]
				},
				"arm_right2": {
					"rotation": [-2.5, 0, -32.5]
				},
				"arm_right3": {
					"rotation": [0, 0, -42.5]
				},
				"arm_right4": {
					"rotation": [0, 0, -27.5]
				},
				"arm_right5": {
					"rotation": [-0.81896, -2.74608, 33.83565]
				},
				"arm_right6": {
					"rotation": [0, 0, 25]
				},
				"arm_right7": {
					"rotation": [0, 0, 50]
				},
				"hand_right": {
					"rotation": [-0.36116, -0.89127, 57.52555]
				},
				"hand_right2": {
					"rotation": [0, 0, 67.5]
				},
				"key3": {
					"rotation": [15.01365, -2.41476, -0.64743],
					"position": [-10, 1.5, 0]
				},
				"key4": {
					"rotation": [-14.27703, -2.75993, 19.13338],
					"position": [-10, 2, 0]
				},
				"key4_2": {
					"rotation": [-6.23235, 7.52076, -18.58597]
				}
			}
		},
		"animation.klefki.blink": {
			"animation_length": 0.16667,
			"bones": {
				"eye_closed_left": {
					"position": {
						"0.0": [0, 0, -0.1],
						"0.125": [0, 0, -0.1],
						"0.1667": [0, 0, 0]
					}
				},
				"eye_open_left": {
					"position": {
						"0.0": [0, 0, 0.1],
						"0.125": [0, 0, 0.1],
						"0.1667": [0, 0, 0]
					}
				},
				"eye_open_right": {
					"position": {
						"0.0": [0, 0, 0.1],
						"0.125": [0, 0, 0.1],
						"0.1667": [0, 0, 0]
					}
				},
				"eye_closed_right": {
					"position": {
						"0.0": [0, 0, -0.1],
						"0.125": [0, 0, -0.1],
						"0.1667": [0, 0, 0]
					}
				}
			}
		}
	}
}