{
  "species": "cobblemon:cyndaquil",
  "order": 1,
  "variations": [
    {
      "aspects": ["region-bias-hisui"],
      "model": "cobblemon:cyndaquil_hisuian.geo",
      "texture": "cobblemon:textures/pokemon/0155_cyndaquil/cyndaquil_hisuian.png",
      "layers": [
        {
          "name": "emissive",
          "texture": "cobblemon:textures/pokemon/0155_cyndaquil/cyndaquil_hisuian_emissives.png",
          "emissive": true,
          "translucent": true
        }
      ]
    },
    {
      "aspects": [
        "region-bias-hisui",
        "shiny"
      ],
      "texture": "cobblemon:textures/pokemon/0155_cyndaquil/cyndaquil_hisuian_shiny.png"
    }
  ]
}