{
  "implemented": true,
  "name": "Scatterbug",
  "nationalPokedexNumber": 664,
  "primaryType": "bug",
  "abilities": [
    "shielddust",
    "compoundeyes",
    "h:friendguard"
  ],
  "drops": {
    "amount": 3,
    "entries": [
      {
        "item": "minecraft:string",
        "quantityRange": "0-1"
      },
      {
        "item": "cobblemon:bright_powder",
        "percentage": 2.5
      },
      {
        "item": "cobblemon:cheri_berry",
        "percentage": 2.5
      }
    ]
  },
  "baseStats": {
    "hp": 38,
    "attack": 35,
    "defence": 40,
    "special_attack": 27,
    "special_defence": 25,
    "speed": 35
  },
  "catchRate": 255,
  "maleRatio": 0.5,
  "shoulderMountable": true,
  "baseExperienceYield": 40,
  "experienceGroup": "medium_fast",
  "eggCycles": 15,
  "eggGroups": [
    "bug"
  ],
  "behaviour": {
    "moving": {
      "walk": {
        "walkSpeed": 0.26
      }
    },
    "resting": {
      "canSleep": true,
      "willSleepOnBed": false,
      "depth": "normal",
      "light": "0-4"
    }
  },
  "moves": [
    "1:stringshot",
    "1:tackle",
    "6:stunspore",
    "15:bugbite",
    "egg:poisonpowder",
    "egg:ragepowder",
    "egg:stunspore",
    "tm:bugbite",
    "tm:pounce",
    "tm:strugglebug",
    "tm:terablast",
    "tutor:bugbite"
  ],
  "labels": [
    "gen6"
  ],
  "pokedex": [
    "cobblemon.species.scatterbug.desc"
  ],
  "evolutions": [
    {
      "id": "scatterbug_spewpa",
      "variant": "level_up",
      "result": "spewpa",
      "consumeHeldItem": false,
      "learnableMoves": [
        "protect"
      ],
      "requirements": [
        {
          "variant": "level",
          "minLevel": 9
        }
      ]
    }
  ],
  "baseScale": 0.5,
  "hitbox": {
    "width": 0.7,
    "height": 0.6,
    "fixed": false
  },
  "baseFriendship": 70,
  "evYield": {
    "hp": 0,
    "attack": 0,
    "defence": 1,
    "special_attack": 0,
    "special_defence": 0,
    "speed": 0
  },
  "height": 3,
  "weight": 25,
  "aspects": [],
  "cannotDynamax": false
}