{
  "implemented": true,
  "name": "Drifblim",
  "nationalPokedexNumber": 426,
  "primaryType": "ghost",
  "secondaryType": "flying",
  "abilities": [
    "aftermath",
    "unburden",
    "h:flareboost"
  ],
  "drops": {
    "amount": 3,
    "entries": [
      {
        "item": "minecraft:phantom_membrane",
        "percentage": 5.0
      },
      {
        "item": "cobblemon:kasib_berry",
        "percentage": 5.0
      },
      {
        "item": "cobblemon:air_balloon",
        "percentage": 5.0
      }
    ]
  },
  "baseStats": {
    "hp": 150,
    "attack": 80,
    "defence": 44,
    "special_attack": 90,
    "special_defence": 54,
    "speed": 80
  },
  "catchRate": 60,
  "maleRatio": 0.5,
  "shoulderMountable": false,
  "baseExperienceYield": 174,
  "experienceGroup": "fluctuating",
  "eggCycles": 30,
  "eggGroups": [
    "amorphous"
  ],
  "behaviour": {
    "moving": {
      "fly": {
        "canFly": true
      }
    },
    "resting": {
      "canSleep": true,
      "willSleepOnBed": false,
      "depth": "normal",
      "light": "0-4"
    }
  },
  "moves": [
    "1:astonish",
    "1:constrict",
    "1:focusenergy",
    "1:gust",
    "1:minimize",
    "1:phantomforce",
    "1:strengthsap",
    "12:payback",
    "13:focusenergy",
    "14:focusenergy",
    "16:hex",
    "16:payback",
    "17:payback",
    "20:ominouswind",
    "20:shadowball",
    "22:hex",
    "22:stockpile",
    "24:spitup",
    "24:stockpile",
    "24:swallow",
    "25:stockpile",
    "27:hex",
    "27:spitup",
    "27:stockpile",
    "27:swallow",
    "31:selfdestruct",
    "32:ominouswind",
    "32:spitup",
    "32:swallow",
    "34:spitup",
    "34:swallow",
    "36:destinybond",
    "37:batonpass",
    "37:ominouswind",
    "40:shadowball",
    "42:batonpass",
    "44:batonpass",
    "44:shadowball",
    "46:amnesia",
    "48:tailwind",
    "51:explosion",
    "51:shadowball",
    "52:batonpass",
    "54:explosion",
    "56:explosion",
    "60:explosion",
    "tm:acrobatics",
    "tm:aerialace",
    "tm:aircutter",
    "tm:airslash",
    "tm:allyswitch",
    "tm:amnesia",
    "tm:attract",
    "tm:batonpass",
    "tm:bodyslam",
    "tm:brutalswing",
    "tm:calmmind",
    "tm:captivate",
    "tm:chargebeam",
    "tm:confide",
    "tm:curse",
    "tm:cut",
    "tm:defog",
    "tm:doubleteam",
    "tm:dreameater",
    "tm:embargo",
    "tm:endure",
    "tm:explosion",
    "tm:facade",
    "tm:flash",
    "tm:fling",
    "tm:fly",
    "tm:focusenergy",
    "tm:frustration",
    "tm:gigaimpact",
    "tm:gyroball",
    "tm:haze",
    "tm:helpinghand",
    "tm:hex",
    "tm:hiddenpower",
    "tm:hyperbeam",
    "tm:icywind",
    "tm:imprison",
    "tm:knockoff",
    "tm:naturalgift",
    "tm:nightshade",
    "tm:painsplit",
    "tm:payback",
    "tm:phantomforce",
    "tm:protect",
    "tm:psybeam",
    "tm:psychic",
    "tm:psychup",
    "tm:raindance",
    "tm:recycle",
    "tm:rest",
    "tm:return",
    "tm:round",
    "tm:secretpower",
    "tm:selfdestruct",
    "tm:shadowball",
    "tm:shockwave",
    "tm:silverwind",
    "tm:skillswap",
    "tm:sleeptalk",
    "tm:snore",
    "tm:spite",
    "tm:storedpower",
    "tm:substitute",
    "tm:sunnyday",
    "tm:swagger",
    "tm:swift",
    "tm:tailwind",
    "tm:telekinesis",
    "tm:temperflare",
    "tm:terablast",
    "tm:thief",
    "tm:thunder",
    "tm:thunderbolt",
    "tm:thunderwave",
    "tm:toxic",
    "tm:trick",
    "tm:trickroom",
    "tm:weatherball",
    "tm:willowisp",
    "tutor:aircutter",
    "tutor:allyswitch",
    "tutor:bind",
    "tutor:defog",
    "tutor:icywind",
    "tutor:knockoff",
    "tutor:magiccoat",
    "tutor:mudslap",
    "tutor:ominouswind",
    "tutor:painsplit",
    "tutor:recycle",
    "tutor:rollout",
    "tutor:shockwave",
    "tutor:skillswap",
    "tutor:sleeptalk",
    "tutor:snore",
    "tutor:spite",
    "tutor:suckerpunch",
    "tutor:swift",
    "tutor:tailwind",
    "tutor:telekinesis",
    "tutor:trick"
  ],
  "labels": [
    "gen4"
  ],
  "pokedex": [
    "cobblemon.species.drifblim.desc"
  ],
  "preEvolution": "drifloon",
  "evolutions": [],
  "baseScale": 1,
  "hitbox": {
    "width": 1.6,
    "height": 3.25,
    "fixed": false
  },
  "baseFriendship": 50,
  "evYield": {
    "hp": 2,
    "attack": 0,
    "defence": 0,
    "special_attack": 0,
    "special_defence": 0,
    "speed": 0
  },
  "height": 12,
  "weight": 150,
  "aspects": [],
  "cannotDynamax": false
}