{
	"format_version": "1.8.0",
	"animations": {
		"animation.lilligant_hisuian.ground_idle": {
			"loop": true,
			"bones": {
				"body": {
					"position": [0, -0.5, 0]
				},
				"torso": {
					"rotation": [5, 0, 0]
				},
				"waist": {
					"rotation": [-2.5, 0, 0]
				},
				"chest": {
					"rotation": [-4.88692, 0.21917, 1.02544]
				},
				"neck_petal_left": {
					"rotation": [0, 0, 7.5]
				},
				"neck_petal_right": {
					"rotation": [0, 0, -7.5]
				},
				"head": {
					"rotation": [5, 0, 0]
				},
				"arm_left": {
					"rotation": [4.04618, -6.3202, 57.27652]
				},
				"arm_left2": {
					"rotation": [0, 0, -7.5]
				},
				"arm_left3": {
					"rotation": [0, 0, -10]
				},
				"arm_left4_rotation": {
					"rotation": [0, 0, -12.5]
				},
				"leg_left": {
					"rotation": [10, 0, 12.5]
				},
				"leg_left2": {
					"rotation": [0, 0, 0]
				},
				"foot_left2": {
					"rotation": [-9.77425, 2.08923, -0.55546]
				},
				"leg_right": {
					"rotation": [-12.39638, 1.61888, -10.17583]
				},
				"leg_right2": {
					"rotation": [7.5, 0, 0]
				},
				"foot_right2": {
					"rotation": [5, 0, 0]
				},
				"arm_left5": {
					"rotation": [0, 0, -22.5]
				},
				"arm_right": {
					"rotation": [4.04618, 6.3202, -57.27652]
				},
				"arm_right2": {
					"rotation": [0, 0, 7.5]
				},
				"arm_right3": {
					"rotation": [0, 0, 10]
				},
				"arm_right4_rotation": {
					"rotation": [0, 0, 12.5]
				},
				"arm_right5": {
					"rotation": [0, 0, 22.5]
				},
				"thight_leaf_left2": {
					"rotation": [0, 0, -7.5]
				},
				"thight_leaf_right2": {
					"rotation": [0, 0, 7.5]
				},
				"neck_petal_front": {
					"rotation": [17.5, 0, 0]
				},
				"neck_petal_back": {
					"rotation": [-7.5, 0, 0]
				},
				"lilligant_hisuian": {
					"scale": 1
				}
			}
		},
		"animation.lilligant_hisuian.blink": {
			"animation_length": 0.16667,
			"bones": {
				"eyelid_left": {
					"position": {
						"0.0": [0, 0, -0.1],
						"0.125": [0, 0, -0.1],
						"0.1667": [0, 0, 0]
					}
				},
				"eyelid_right": {
					"position": {
						"0.0": [0, 0, -0.1],
						"0.125": [0, 0, -0.1],
						"0.1667": [0, 0, 0]
					}
				}
			}
		}
	}
}