{
  "implemented": true,
  "name": "Grimmsnarl",
  "nationalPokedexNumber": 861,
  "primaryType": "dark",
  "secondaryType": "fairy",
  "abilities": [
    "prankster",
    "frisk",
    "h:pickpocket"
  ],
  "baseStats": {
    "hp": 95,
    "attack": 120,
    "defence": 65,
    "special_attack": 95,
    "special_defence": 75,
    "speed": 60
  },
  "behaviour": {
    "resting": {
      "canSleep": true,
      "depth": "normal",
      "light": "0-4"
    }
  },
  "catchRate": 45,
  "maleRatio": 1,
  "shoulderMountable": false,
  "forms": [
    {
      "name": "Gmax",
      "primaryType": "dark",
      "secondaryType": "fairy",
      "abilities": [
        "prankster",
        "frisk",
        "h:pickpocket"
      ],
      "baseStats": {
        "hp": 95,
        "attack": 120,
        "defence": 65,
        "special_attack": 95,
        "special_defence": 75,
        "speed": 60
      },
      "catchRate": 45,
      "maleRatio": 1,
      "baseExperienceYield": 255,
      "baseFriendship": 50,
      "evYield": {
        "hp": 0,
        "attack": 3,
        "defence": 0,
        "special_attack": 0,
        "special_defence": 0,
        "speed": 0
      },
      "experienceGroup": "medium_fast",
      "eggCycles": 20,
      "eggGroups": [
        "fairy",
        "human_like"
      ],
      "labels": [
        "gen8",
        "gmax"
      ],
      "aspects": [
        "gmax"
      ],
      "height": 320,
      "weight": 0,
      "cannotDynamax": false,
      "battleOnly": false
    }
  ],
  "baseExperienceYield": 255,
  "experienceGroup": "medium_fast",
  "eggCycles": 20,
  "eggGroups": [
    "fairy",
    "human_like"
  ],
  "moves": [
    "1:bite",
    "1:bulkup",
    "1:confide",
    "1:fakeout",
    "1:falsesurrender",
    "1:flatter",
    "1:poweruppunch",
    "12:faketears",
    "16:assurance",
    "20:swagger",
    "24:suckerpunch",
    "28:torment",
    "35:darkpulse",
    "40:nastyplot",
    "48:playrough",
    "56:foulplay",
    "64:hammerarm",
    "tm:assurance",
    "tm:attract",
    "tm:bodypress",
    "tm:bodyslam",
    "tm:brickbreak",
    "tm:bulkup",
    "tm:burningjealousy",
    "tm:chillingwater",
    "tm:crunch",
    "tm:darkestlariat",
    "tm:darkpulse",
    "tm:dazzlinggleam",
    "tm:drainingkiss",
    "tm:drainpunch",
    "tm:endure",
    "tm:facade",
    "tm:faketears",
    "tm:firepunch",
    "tm:fling",
    "tm:focusblast",
    "tm:focusenergy",
    "tm:focuspunch",
    "tm:foulplay",
    "tm:gigaimpact",
    "tm:hyperbeam",
    "tm:icepunch",
    "tm:imprison",
    "tm:lashout",
    "tm:leechlife",
    "tm:lightscreen",
    "tm:lowkick",
    "tm:lowsweep",
    "tm:megakick",
    "tm:megapunch",
    "tm:metronome",
    "tm:mistyterrain",
    "tm:nastyplot",
    "tm:playrough",
    "tm:powerswap",
    "tm:powerwhip",
    "tm:protect",
    "tm:reflect",
    "tm:rest",
    "tm:retaliate",
    "tm:revenge",
    "tm:round",
    "tm:scaryface",
    "tm:shadowclaw",
    "tm:sleeptalk",
    "tm:snore",
    "tm:stompingtantrum",
    "tm:substitute",
    "tm:superpower",
    "tm:takedown",
    "tm:taunt",
    "tm:terablast",
    "tm:thief",
    "tm:throatchop",
    "tm:thunderpunch",
    "tm:thunderwave",
    "tm:trailblaze",
    "tm:trick",
    "tm:uproar",
    "tm:wonderroom",
    "tutor:burningjealousy",
    "tutor:lashout",
    "tutor:lightscreen",
    "tutor:reflect",
    "tutor:spiritbreak",
    "tutor:thunderwave"
  ],
  "labels": [
    "gen8"
  ],
  "pokedex": [
    "cobblemon.species.grimmsnarl.desc"
  ],
  "preEvolution": "morgrem",
  "evolutions": [],
  "baseScale": 0.9,
  "hitbox": {
    "width": 1.5,
    "height": 2.58,
    "fixed": false
  },
  "baseFriendship": 50,
  "evYield": {
    "hp": 0,
    "attack": 3,
    "defence": 0,
    "special_attack": 0,
    "special_defence": 0,
    "speed": 0
  },
  "height": 15,
  "weight": 610,
  "aspects": [],
  "cannotDynamax": false,
  "drops": {
    "amount": 1,
    "entries": [
      {
        "item": "cobblemon:roseli_berry",
        "percentage": 10.0
      }
    ]
  }
}