{
    "enabled": true,
    "neededInstalledMods": [],
    "neededUninstalledMods": [],
    "spawns": [
        {
            "id": "dreepy-1",
            "pokemon": "dreepy",
            "presets": [
                "natural",
                "freshwater"
            ],
            "type": "pokemon",
            "context": "grounded",
            "bucket": "rare",
            "level": "2-27",
            "weight": 9.0,
            "weightMultiplier": {
                "multiplier": 5.0,
                "condition": {
                    "timeRange": "twilight"
                }
            },
            "condition": {
                "minSkyLight": 8,
                "maxSkyLight": 15
            }
        },
        {
            "id": "dreepy-2",
            "pokemon": "dreepy",
            "presets": [
                "water_surface"
            ],
            "type": "pokemon",
            "context": "surface",
            "bucket": "rare",
            "level": "2-27",
            "weight": 9.0,
            "weightMultiplier": {
                "multiplier": 5.0,
                "condition": {
                    "timeRange": "twilight"
                }
            },
            "condition": {
                "biomes": [
                    "#cobblemon:is_overworld"
                ]
            },
            "anticondition": {
                "biomes": [
                    "#cobblemon:is_ocean"
                ]
            }
        },
        {
            "id": "dreepy-3",
            "pokemon": "dreepy",
            "presets": [
                "natural"
            ],
            "type": "pokemon",
            "context": "grounded",
            "bucket": "rare",
            "level": "2-27",
            "weight": 9.0,
            "weightMultiplier": {
                "multiplier": 5.0,
                "condition": {
                    "timeRange": "twilight"
                }
            },
            "condition": {
                "biomes": [
                    "#cobblemon:nether/is_warped"
                ]
            }
        }
    ]
}