{
  "species": "cobblemon:dartrix",
  "order": 1,
  "variations": [
    {
      "aspects": ["region-bias-hisui"],
      "model": "cobblemon:dartrix_hisuian.geo",
      "texture": "cobblemon:textures/pokemon/0723_dartrix/dartrix_hisuian.png",
      "layers": []
    },
    {
      "aspects": [
        "region-bias-hisui",
        "shiny"
      ],
      "texture": "cobblemon:textures/pokemon/0723_dartrix/dartrix_hisuian_shiny.png"
    }
  ]
}